^C:\USERS\ORCA\DOCUMENTS\УНИВЕР\АТП\ЛАБЫ\LAB3\LAB3\DEBUG\MAIN.OBJ|C:\USERS\ORCA\DOCUMENTS\УНИВЕР\АТП\ЛАБЫ\LAB3\LAB3\DEBUG\STDAFX.OBJ
/OUT:"C:\USERS\ORCA\DOCUMENTS\УНИВЕР\АТП\ЛАБЫ\LAB3\DEBUG\LAB3.EXE" /INCREMENTAL /NOLOGO KERNEL32.LIB USER32.LIB GDI32.LIB WINSPOOL.LIB COMDLG32.LIB ADVAPI32.LIB SHELL32.LIB OLE32.LIB OLEAUT32.LIB UUID.LIB ODBC32.LIB ODBCCP32.LIB /MANIFEST /MANIFESTUAC:"level='asInvoker' uiAccess='false'" /manifest:embed /DEBUG:FASTLINK /PDB:"C:\USERS\ORCA\DOCUMENTS\УНИВЕР\АТП\ЛАБЫ\LAB3\DEBUG\LAB3.PDB" /SUBSYSTEM:CONSOLE /TLBID:1 /DYNAMICBASE /NXCOMPAT /IMPLIB:"C:\USERS\ORCA\DOCUMENTS\УНИВЕР\АТП\ЛАБЫ\LAB3\DEBUG\LAB3.LIB" /MACHINE:X86 DEBUG\MAIN.OBJDEBUG\STDAFX.OBJ
^C:\USERS\ORCA\DOCUMENTS\УНИВЕР\АТП\ЛАБЫ\LAB3 — КОПИЯ\LAB3\DEBUG\MAIN.OBJ|C:\USERS\ORCA\DOCUMENTS\УНИВЕР\АТП\ЛАБЫ\LAB3 — КОПИЯ\LAB3\DEBUG\STDAFX.OBJ
/OUT:"C:\USERS\ORCA\DOCUMENTS\УНИВЕР\АТП\ЛАБЫ\LAB3 — КОПИЯ\DEBUG\LAB3.EXE" /INCREMENTAL /NOLOGO KERNEL32.LIB USER32.LIB GDI32.LIB WINSPOOL.LIB COMDLG32.LIB ADVAPI32.LIB SHELL32.LIB OLE32.LIB OLEAUT32.LIB UUID.LIB ODBC32.LIB ODBCCP32.LIB /MANIFEST /MANIFESTUAC:"level='asInvoker' uiAccess='false'" /manifest:embed /DEBUG:FASTLINK /PDB:"C:\USERS\ORCA\DOCUMENTS\УНИВЕР\АТП\ЛАБЫ\LAB3 — КОПИЯ\DEBUG\LAB3.PDB" /SUBSYSTEM:CONSOLE /TLBID:1 /DYNAMICBASE /NXCOMPAT /IMPLIB:"C:\USERS\ORCA\DOCUMENTS\УНИВЕР\АТП\ЛАБЫ\LAB3 — КОПИЯ\DEBUG\LAB3.LIB" /MACHINE:X86 DEBUG\MAIN.OBJDEBUG\STDAFX.OBJ
